{
  "type": "minecraft:block",
  "pools": [
    {
	  "name": "diamondglass:diamondglassstairs_yellow",
      "rolls": 1,
      "entries": [
        {
          "type": "minecraft:item",
          "name": "diamondglass:diamondglassstairs_yellow"
        }
      ],
      "conditions": [
        {
          "condition": "minecraft:survives_explosion"
        }
      ]
    }
  ]
}
