{
  "type": "minecraft:block",
  "pools": [
    {
	  "name": "diamondglass:diamondglasspane_orange",
      "rolls": 1,
      "entries": [
        {
          "type": "minecraft:item",
          "name": "diamondglass:diamondglasspane_orange"
        }
      ],
      "conditions": [
        {
          "condition": "minecraft:survives_explosion"
        }
      ]
    }
  ]
}
