{
    "parent": "block/slab_top",
    "textures": {
        "bottom": "diamondglass:blocks/diamondglass_green",
        "top": "diamondglass:blocks/diamondglass_green",
        "side": "diamondglass:blocks/diamondglass_green"
    }
}
