{
    "parent": "block/stairs",
    "textures": {
        "bottom": "diamondglass:blocks/diamondsandstonechiseled_bottom",
        "top": "diamondglass:blocks/diamondsandstonechiseled_top",
        "side": "diamondglass:blocks/diamondsandstonechiseled"
    }
}
