{
    "parent": "block/inner_stairs",
    "textures": {
        "bottom": "diamondglass:blocks/diamondsandstonesmooth_bottom",
        "top": "diamondglass:blocks/diamondsandstonesmooth_top",
        "side": "diamondglass:blocks/diamondsandstonesmooth"
    }
}
