{
    "parent": "block/outer_stairs",
    "textures": {
        "bottom": "diamondglass:blocks/diamondglass_light_gray",
        "top": "diamondglass:blocks/diamondglass_light_gray",
        "side": "diamondglass:blocks/diamondglass_light_gray"
    }
}
