{
    "variants": {
        "type=bottom": { "model": "diamondglass:block/diamondglassslab_pink" },
        "type=top": { "model": "diamondglass:block/diamondglassslab_pink_top" },
        "type=double": { "model": "diamondglass:block/diamondglass_pink" }
    }
}
